{
    "model": "CourseClasses",
    "settings": {
      "i18n": {
        "el": {
          "Academic Year": "Ακαδ.έτος",
          "Academic Period": "Περίοδος",
          "Select the academic year for which to create course classes": "Επιλέξτε το ακαδημαϊκό έτος για το οποίο πρόκειται να δημιουργήσετε τάξεις μαθημάτων.",
          "Select the academic period for which to create course classes":"Επιλέξτε την ακαδημαϊκή περίοδο για οποία πρόκειται να δημιουργήσετε τάξεις μαθημάτων."
        }
      }
    },
    "components": [
      {
        "type": "fieldset",
        "components": [
          {
            "columns": [
              {
                "components": [
                  {
                    "label": "Academic Year",
                    "labelPosition": "top",
                    "widget": "choicesjs",
                    "dataSrc": "url",
                    "data": {
                      "url": "AcademicYears?$top={{limit}}&$skip={{skip}}&$orderby=id desc",
                      "headers": []
                    },
                    "searchFields": ["id", "name"],
                    "template": "<span class='d-block pr-5 text-truncate'>{{ item.name }}</span>",
                    "selectValues": "value",
                    "key": "year",
                    "valueProperty": "id",
                    "type": "select",
                    "input": true,
                    "validate": {
                      "required": true
                    },
                    "description": "Select the academic year for which to create course classes"
                  }
                ],
                "width": 8
              },
              {
                "components": [
                  {
                    "label": "Academic Period",
                    "labelPosition": "top",
                    "widget": "choicesjs",
                    "dataSrc": "url",
                    "data": {
                      "url": "AcademicPeriods/?$select=id,name,alternateName",
                      "headers": []
                    },
                    "searchFields": ["id", "name"],
                    "template": "<span class='d-block pr-5 text-truncate'>{{ item.alternateName }}</span>",
                    "selectValues": "value",
                    "key": "period",
                    "valueProperty": "id",
                    "type": "select",
                    "input": true,
                    "validate": {
                      "required": true
                    },
                    "description": "Select the academic period for which to create course classes"
                  }
                ],
                "width": 8
              }
            ],
            "customClass": "text-dark",
            "hideLabel": true,
            "type": "columns",
            "input": false
          }
        ]
      }
    ],
    "width": 3
  }
  