{
  "model": "CourseExams",
  "settings": {
    "i18n": {
      "el": {
        "Academic Year": "Ακαδ.έτος",
        "Exam period": "Εξεταστική",
        "Select the academic year to create exams to": "Επιλέξτε το ακαδημαϊκό έτος στο οποίο πρόκειται να δημιουργήσετε εξετάσεις για τις επιλεγμένες τάξεις",
        "Select the exam period to create exams to":"Επιλέξτε την εξεταστική περίοδο στην οποία πρόκειται να δημιουργήσετε εξετάσεις για τις επιλεγμένες τάξεις"
      }
    }
  },
  "components": [
    {
      "type": "fieldset",
      "components": [
        {
          "columns": [
            {
              "components": [
                {
                  "label": "Academic Year",
                  "labelPosition": "top",
                  "widget": "choicesjs",
                  "dataSrc": "url",
                  "defaultValue": "{{data.year}}",
                  "customConditional": "show = !!data.year;",
                  "data": {
                    "url": "/AcademicYears?$select=id,name&$filter=id eq {{data.year}}",
                    "headers": []
                  },
                  "validate": {
                    "required": true
                  },
                  "valueProperty": "id",
                  "lazyLoad": false,
                  "dataType": "string",
                  "template": "<span class='d-block pr-5 text-truncate'>{{ item.name }}</span>",
                  "selectThreshold": 0.3,
                  "key": "year",
                  "type": "select",
                  "selectValues": "value",
                  "input": true,
                  "disabled": true,
                  "description": "Select the academic year to create exams to"
                }
              ],
              "width": 8
            },
            {
              "components": [
                {
                  "label": "Exam period",
                  "labelPosition": "top",
                  "widget": "choicesjs",
                  "dataSrc": "url",
                  "customConditional": "show = !!data.period;",
                  "data": {
                    "url": "ExamPeriods/?$select=id,name&$filter=bit(periods,{{data.period}}) eq {{data.period}}",
                    "headers": []
                  },
                  "searchFields": ["id", "name"],
                  "template": "<span class='d-block pr-5 text-truncate'>{{ item.name }}</span>",
                  "selectValues": "value",
                  "key": "examPeriod",
                  "valueProperty": "id",
                  "type": "select",
                  "input": true,
                  "validate": {
                    "required": true
                  },
                  "description": "Select the exam period to create exams to"
                }
              ],
              "width": 8
            }
          ],
          "customClass": "text-dark",
          "hideLabel": true,
          "type": "columns",
          "input": false
        }
      ]
    }
  ],
  "width": 3
}
