{
    "model": "LocalDepartments",
    "subtitle": "Settings.EditItem",
    "settings": {
      "i18n": {
        "el": {
          "Data available since":"Δεδομένα διαθέσιμα από",
          "Information about data availability":"Πληροφορίες σχετικά με την διαθεσιμότητα δεδομένων",
          "Write a short description for data availability": "Γράψτε μία σύντομη αναφορά για την διαθεσιμότητα των δεδομένων"
        }
      }
    },
    "components": [
      {
        "type": "fieldset",
        "components": [
          {
            "label": "HTML",
            "tag": "h5",
            "className": "font-weight-normal",
            "content": "{{instance.t('Edit item')}} {{data.name}}",
            "refreshOnChange": false,
            "tableView": false,
            "key": "subtitle",
            "type": "htmlelement",
            "input": false
          },
          {
            "columns": [
                {
                    "components": [
                      {
                        "label": "Data available since",
                        "labelPosition": "top",
                        "spellcheck": true,
                        "enableTime": false,
                        "widget": {
                          "type": "input"
                        },
                        "validate": {
                            "required": false
                          },
                        "key": "dataAvailability.availableSince",
                        "type": "datetime",
                        "format": "dd/MM/yyyy",
                        "input": true,
                        "defaultValue": null
                      }
                    ],
                    "width": 3,
                    "offset": 0,
                    "push": 0,
                    "pull": 0
                  },
              {
                "components": [
                  {
                    "label": "Description",
                    "labelPosition": "top",
                    "widget": {
                      "type": "input"
                    },
                    "validate": {
                      "required": false
                    },
                    "key": "dataAvailability.availableSinceDescription",
                    "type": "textarea",
                    "input": true,
                    "description": "Write a short description for data availability"
                  }
                ],
                "width": 12
              }
            ],
            "customClass": "text-dark",
            "hideLabel": true,
            "type": "columns",
            "input": false
          }
        ]
      },
      {
        "type": "button",
        "label": "Submit",
        "key": "submit",
        "disableOnInvalid": true,
        "input": true
      }
    ]
  }
