{
    "title": "CourseClasses",
    "model": "AvailableClasses",
    "searchExpression":"(indexof(displayCode, '${text}') ge 0 or id eq '${text}' or indexof(name, '${text}') ge 0) ",
    "columns": [
      {
        "name":"courseClass",
        "property":"courseClass",
        "hidden": true
      },
      {
        "name":"id",
        "property":"id",
        "hidden": true
      },
        {
          "name":"displayCode",
          "property":"displayCode",
          "title":"Classes.DisplayCode"
        },
        {
          "name":"name",
          "property": "name",
          "title":"Classes.ClassTitle"
        },
        {
          "name":"semester/name",
          "property": "semester",
          "title":"Courses.semester"
        },
        {
          "name":"courseType/name",
          "property": "courseTypeName",
          "title":"Courses.CourseType.Label"
        },
        {
          "name":"units",
          "property": "units",
          "title":"Courses.units"
        },
        {
          "name":"ects",
          "property": "ects",
          "title":"Courses.ects"
        },
        {
          "name":"coefficient",
          "property": "coefficient",
          "title":"Courses.Coefficient"
        }
    ],
    "defaults":{
      "orderBy": "name asc"
    },
    "criteria": [
      {
        "name": "name",
        "filter": "(indexof(name, '${value}') ge 0)",
        "type": "text"
      },
      {
        "name": "displayCode",
        "filter": "(course/displayCode eq '${value}')",
        "type": "text"
      },
      {
        "name": "courseTypeId",
        "filter": "(courseType/id eq ${value})",
        "type": "text"
      }
    ],
    "searches" : [
    ]
}
