{
  "title": "Scholarships.Open",
  "model": "Scholarships",
  "searchExpression":"indexof(name, '${text}') ge 0 or indexof(organization/name, '${text}') ge 0 or indexof(department/abbreviation, '${text}') ge 0 or indexof(year/alternateName, '${text}') ge 0 or indexof(status/name, '${text}') ge 0",
  "columns": [
    {
      "name":"id",
      "property": "id",
      "formatter": "ActionLinkFormatter",
      "hidden": true,
      "actions" : [
        {
          "title": "Scholarships.Preview",
          "href": "#/scholarships/${id}/",
          "role": "preview"
        },
        {
          "title": "Scholarships.Edit",
          "href": "#/scholarships/${id}/edit",
          "role": "edit"
        },
        {
          "title": "Scholarships.ScholarshipRules",
          "href": "#/scholarships/${id}/preview/general/(modal:/rules)",
          "role": "action"
        }
      ]
    },
    {
      "name":"name",
      "title":"Scholarships.Name"
    },
    {
      "name":"department/abbreviation",
      "property": "departmentAbbreviation",
      "title":"Scholarships.Department"
    },
    {
      "name":"organization/name",
      "property": "organizationName",
      "title":"Scholarships.Organization"
    },
    {
      "name":"year/alternateName",
      "property":"yearAlternateName",
      "title":"Scholarships.YearAlternateName"
    },
    {
      "name":"scholarshipType/alternateName",
      "property":"scholarshipTypeName",
      "title":"Scholarships.ScholarshipTypeName",
      "formatter": "TranslationFormatter",
      "formatString": "Scholarships.ScholarshipType.${value || 'none'}"
    },
    {
      "name":"totalStudents",
      "title":"Scholarships.TotalStudents"
    },
    {
      "name": "id",
      "virtual" : true,
      "formatter": "ButtonFormatter",
      "formatString":"(modal:rules)",
      "className": "text-center",
      "formatOptions": {
        "buttonContent": "<i class=\"fas fa-blender text-indigo\"></i>",
        "buttonClass": "btn btn-default",
        "commands": [
          { "outlets":
          {
            "modal":["item", "${id}", "rules"]
          }
          }
        ],
        "navigationExtras": {
          "replaceUrl": false,
          "skipLocationChange": true
        }
      }
    },
    {
      "name": "id",
      "property" : "id",
      "virtual": true,
      "formatter": "ButtonFormatter",
      "formatString": "#/scholarships/${id}",
      "className": "text-center",
      "formatOptions": {
        "buttonContent": "<i class=\"far fa-eye text-indigo\"></i>",
        "buttonClass": "btn btn-default"
      }
    }
  ],
  "defaults":{
    "filter": "(department eq ${currentDepartment} and status/alternateName eq 'open')",
    "orderBy": "year desc"
  },
  "criteria": [
    {
      "name": "name",
      "filter": "(indexof(name, '${value}') ge 0)",
      "type": "text"
    },
    {
      "name": "department",
      "filter": "(indexof(department/abbreviation, '${value}') ge 0)",
      "type": "text"
    },
    {
      "name": "organization",
      "filter": "(indexof(organization/name, '${value}') ge 0)",
      "type": "text"
    },
    {
      "name": "year",
      "filter": "(year eq '${value}')",
      "type": "text"
    },
    {
      "name": "scholarshipType",
      "filter": "(scholarshipType/alternateName eq '${value}')",
      "type": "text"
    },
    {
      "name": "status",
      "filter": "(status/alternateName eq '${value}')",
      "type": "text"
    }
  ],
  "paths" : []
}
