{
  "model": "StudentDeclarations",
  "settings": {
    "i18n": {
      "el": {
        "Declaration Information": "Στοιχεία ανακήρυξης",
        "Graduation Date": "Ημερομηνία ορκωμοσίας",
        "Declaration Date": "Ημερομηνία ανακήρυξης",
        "Declaration Period": "Ακαδημαϊκή περίοδος ανακήρυξης",
        "Declaration Year": "Ακαδημαϊκό έτος ανακήρυξης",
        "Graduation Grade": "Βαθμός πτυχίου",
        "Graduation Grade Scale": "Κλίμακα βαθμού πτυχίου",
        "Graduation Grade Written In Words": "Βαθμός πτυχίου ολογράφως",
        "Calculate": "Υπολογισμός",
        "GraduationGradeWrittenInWordsInfo": "Προτείνεται να χρησιμοποιηθεί η τιμή (σε πεζά ή κεφαλαία): "
      },
      "en": {
        "GraduationGradeWrittenInWordsInfo": "It is strongly recommended to use the value (capital or lower case): "
      }
    }
  },
  "components": [
    {
      "legend": "Declaration Information",
      "key": "fieldset",
      "type": "fieldset",
      "input": false,
      "components": [
        {
          "columns": [
            {
              "components": [
                {
                  "label": "Declaration Date",
                  "labelPosition": "top",
                  "enableTime": false,
                  "widget": {
                    "type": "input"
                  },
                  "key": "declaredDate",
                  "validate": {
                    "required": true
                  },
                  "type": "datetime",
                  "format": "dd/MM/yyyy",
                  "input": true
                }
              ],
              "width": 4,
              "offset": 0,
              "push": 0,
              "pull": 0
            },
            {
              "components": [
                {
                  "label": "Declaration Year",
                  "labelPosition": "top",
                  "key": "declaredYear",
                  "validate": {
                    "required": true
                  },
                  "type": "select",
                  "dataSrc": "url",
                  "data": {
                    "url": "AcademicYears/?$top={{limit}}&$skip={{skip}}&$orderby=id desc",
                    "headers": []
                  },
                  "limit": 20,
                  "template": "{{ item.alternateName }}",
                  "input": true,
                  "lazyLoad": true,
                  "selectValues": "value",
                  "widget": "choicesjs"
                }
              ],
              "width": 4,
              "offset": 0,
              "push": 0,
              "pull": 0
            },
            {
              "components": [
                {
                  "label": "Declaration Period",
                  "labelPosition": "top",
                  "widget": "choicesjs",
                  "dataSrc": "url",
                  "data": {
                    "url": "AcademicPeriods",
                    "headers": []
                  },
                  "template": "{{ item.name }}",
                  "selectValues": "value",
                  "key": "declaredPeriod",
                  "validate": {
                    "required": true
                  },
                  "type": "select",
                  "input": true
                }
              ],
              "width": 4,
              "offset": 0,
              "push": 0,
              "pull": 0
            }
          ],
          "customClass": "text-dark",
          "type": "columns",
          "input": false
        },
        {
          "columns": [
            {
              "components": [
                {
                  "label": "Graduation Date",
                  "labelPosition": "top",
                  "enableTime": false,
                  "widget": {
                    "type": "input"
                  },
                  "key": "graduationDate",
                  "validate": {
                    "required": false
                  },
                  "type": "datetime",
                  "format": "dd/MM/yyyy",
                  "input": true
                }
              ],
              "width": 4,
              "offset": 0,
              "push": 0,
              "pull": 0
            },
            {
              "components": [
                {
                  "label": "Graduation Grade",
                  "key": "graduationGradeAdjusted",
                  "labelPosition": "top",
                  "widget": {
                    "type": "input"
                  },
                  "validate": {
                    "required": false
                  },
                  "type": "textfield",
                  "input": true,
                  "disabled": true
                }
              ],
              "width": 4,
              "offset": 0,
              "push": 0,
              "pull": 0
            },
            {
              "components": [
                {
                  "label": "Graduation Grade Scale",
                  "labelPosition": "top",
                  "widget": "choicesjs",
                  "searchEnabled": true,
                  "dataSrc": "url",
                  "data": {
                    "values": [],
                    "url": "GradeScales?$top={{limit}}&$skip={{skip}}&$select=id,name"
                  },
                  "limit": 20,
                  "validate": {
                    "required": false
                  },
                  "disabled": true,
                  "selectThreshold": 0.3,
                  "lazyLoad": true,
                  "template": "{{ item.name }}",
                  "selectValues": "value",
                  "key": "graduationGradeScale",
                  "dataType": "object",
                  "idPath": "id",
                  "type": "select",
                  "input": true
                }
              ],
              "width": 4,
              "offset": 0,
              "push": 0,
              "pull": 0
            }
          ],
          "customClass": "text-dark",
          "hideLabel": true,
          "type": "columns",
          "input": false
        },
        {
          "columns": [
            {
              "components": [
                {
                  "label": "Graduation Grade Written In Words",
                  "key": "graduationGradeWrittenInWords",
                  "labelPosition": "top",
                  "widget": {
                    "type": "input"
                  },
                  "validate": {
                    "required": false
                  },
                  "type": "textfield",
                  "input": true,
                  "disabled": false
                },
                {
                  "label": "HTML",
                  "tag": "p",
                  "className": "font-weight-normal ml-2",
                  "content": "{{instance.t('GraduationGradeWrittenInWordsInfo')}}<b>{{data.validateGradeWrittenInWords}}</b>",
                  "refreshOnChange": false,
                  "tableView": false,
                  "key": "validateGradeWrittenInWords",
                  "type": "htmlelement",
                  "customConditional": "show = !!data.validateGradeWrittenInWords",
                  "input": false
                },
                {
                  "label": "Calculate",
                  "action": "event",
                  "event": "calculateGradeWrittenInWords",
                  "showValidations": false,
                  "theme": "primary",
                  "tableView": false,
                  "key": "submit1",
                  "type": "button",
                  "input": true
                }
              ],
              "width": 12,
              "offset": 0,
              "push": 0,
              "pull": 0
            }
          ],
          "customClass": "text-dark",
          "hideLabel": true,
          "type": "columns",
          "input": false
        }
      ]
    }
  ]
}
