{
  "id": "graduated-students-list",
  "title": "Students.Graduated",
  "model": "Students",
  "searchExpression":"indexof(studentIdentifier, '${text}') ge 0 or indexof(person/familyName, '${text}') ge 0 or indexof(person/givenName, '${text}') ge 0 or indexof(user/name, '${text}') ge 0 or indexof(studyProgram/name, '${text}') ge 0 or indexof(studentStatus/name, '${text}') ge 0 or indexof(uniqueIdentifier, '${text}') ge 0",
  "selectable": true,
  "multipleSelect": true,
  "columns": [
    {
      "name":"id",
      "property": "id",
      "formatter": "ActionLinkFormatter",
      "actions" : [
        {
          "title": "Students.Preview",
          "href": "#/students/${id}/dashboard"
        },
        {
          "title": "Students.PreviewStudyProgram",
          "href": "#/study-programs/${studyProgramId}/preview/general"
        },
        {
          "title": "Students.PreviewStudentCourses",
          "href": "#/students/${id}/dashboard/courses",
          "role": "action"
        },
        {
          "title": "Students.Edit",
          "href": "#/students/${id}/edit",
          "access":[
            {
              "studentStatuses": [
                {"alternateName" : "active"}
              ]
            }
          ]
        },
        {
          "title": "Students.CompleteInscription",
          "href": "#/students/${id}/dashboard/overview/(modal:/inscription-edit)",
          "access":[
            {
              "studentStatuses": [
                {"alternateName" : "candidate"}
              ]
            }
          ]
        },
        {
          "title": "Students.DeletionRequest",
          "href": "#/students/${id}/dashboard/overview/(modal:/remove-request)",
          "access":[
            {
              "studentStatuses": [
                {"alternateName" : "active"}
              ]
            }
          ]
        },
        {
          "title": "Students.NewInternship",
          "href": "#/students/${id}/dashboard/overview/(modal:/internship/new)",
          "access":[
            {
              "studentStatuses": [
                {"alternateName" : "active"}
              ]
            }
          ]
        },
        {
          "title": "DataAvailabilityAttributes.Validation.Search",
          "formatOptions": {
            "commands": ["/departments/configuration/dataAvailability/validate"],
            "navigationExtras": {
              "queryParams": {
                "student": "${id}"
              }
            }
          }
        }
      ]
    },
    {
      "name":"studyProgram",
      "property": "studyProgramId",
      "hidden": true
    },
    {
      "name":"studyProgramSpecialty",
      "property": "studyProgramSpecialty",
      "hidden": true
    },
    {
      "name":"studentIdentifier",
      "property": "studentIdentifier",
      "title":"Students.studentIdentifier"
    },
    {
      "name":"person/familyName",
      "property": "familyName",
      "title":"Students.fullName",
      "formatter": "TemplateFormatter",
      "formatString": "${familyName} ${givenName}"
    },
    {
      "name":"person/givenName",
      "property": "givenName",
      "title":"Students.GivenName",
      "hidden": true
    },
    {
      "name":"department/name",
      "property": "departmentName",
      "title":"Students.Department",
      "hidden": true
    },
    {
      "name":"studyProgram/abbreviation",
      "property": "studyProgram",
      "title":"Students.studyProgram"
    },
    {
      "name":"studyProgramSpecialty/abbreviation",
      "property": "studyProgramSpecialtyAbbreviation",
      "title":"Students.Specialty"
    },
    {
      "name":"semester",
      "property": "semester",
      "title":"Students.semester"
    },
    {
      "name":"graduationDate",
      "property": "graduationDate",
      "title":"Students.GraduationDate",
      "formatter": "DateTimeFormatter",
      "formatString": "shortDate"
    },
    {
      "name":"graduationYear/alternateName",
      "property": "graduationYear",
      "title":"Students.GraduationYear"
    },
    {
      "name":"graduationPeriod/alternateName",
      "property": "graduationPeriod",
      "title":"Students.GraduationPeriod",
      "formatter": "TranslationFormatter",
      "formatString": "Periods.${value}"
    },
    {
      "name":"inscriptionYear/alternateName",
      "property": "inscriptionYear",
      "title":"Students.inscriptionYear"
    },
    {
      "name":"inscriptionPeriod/alternateName",
      "property": "inscriptionPeriod",
      "title":"Students.inscriptionPeriod",
      "formatter": "TranslationFormatter",
      "formatString": "Periods.${value}"
    },
    {
      "name":"graduationGradeAdjusted",
      "property": "graduationGradeAdjusted",
      "title":"Students.GraduationGrade",
      "formatters": [
        {
          "formatter": "TemplateFormatter",
          "formatString": "${graduationGradeAdjusted != null ? graduationGradeAdjusted : '-'}"
        },
        {
          "formatter": "NgClassFormatter",
          "formatOptions": {
            "ngClass": {
              "text-success font-lg": "true"
            }
          }
        }
      ]
    },
    {
      "name":"studentStatus/alternateName",
      "property": "studentStatus",
      "title":"Students.studentStatus",
      "hidden": true
    },
    {
      "name": "user",
      "property": "user",
      "hidden": true
    },
    {
      "name": "graduationGradeScale/id",
      "property": "graduationGradeScale",
      "hidden": true
    },
    {
      "name": "graduationGradeScale/scaleType",
      "property": "graduationGradeScaleType",
      "hidden": true
    },
    {
      "name": "studyProgram/decimalDigits",
      "property": "studyProgramDecimalDigits",
      "hidden": true
    },
    {
      "name": "graduationGradeWrittenInWords",
      "property": "graduationGradeWrittenInWords",
      "hidden": true
    },
    {
      "name": "graduationGrade",
      "property": "graduationGrade",
      "hidden": true
    }
  ],
  "criteria": [
    {
      "name": "studentIdentifier",
      "filter": "(studentIdentifier eq '${value}')",
      "type": "text"
    },
    {
      "name": "studentName",
      "filter": "(indexof(person/familyName, '${value}') ge 0 or indexof(person/givenName, '${value}') ge 0)",
      "type": "text"
    },
    {
      "name": "username",
      "filter": "(indexof(user/name, '${value}') ge 0)",
      "type": "text"
    },
    {
      "name": "studyProgram",
      "filter": "(studyProgram eq ${value})",
      "type": "text"
    },
    {
    "name": "studyProgramSpecialty",
    "filter": "(studyProgramSpecialty eq '${value.id}')",
    "type": "text"
    },
    {
      "name": "graduationTitle",
      "filter": "(indexof(graduationTitle, '${value}') ge 0)",
      "type": "text"
    },
    {
      "name": "graduationYear",
      "filter": "(graduationYear/id eq '${value}')",
      "type": "text"
    },
    {
      "name": "graduationPeriod",
      "filter": "(graduationPeriod/id eq '${value}')",
      "type": "text"
    },
    {
      "name": "inscriptionYear",
      "filter": "(inscriptionYear/id eq '${value}')",
      "type": "text"
    },
    {
      "name": "inscriptionPeriod",
      "filter": "(inscriptionPeriod/id eq '${value}')",
      "type": "text"
    },
    {
      "name": "semester",
      "filter": "(semester eq '${value}')",
      "type": "text"
    },
    {
      "name": "minDate",
      "filter": "(graduationDate ge '${new Date(value).toISOString()}')"
    },
    {
      "name": "maxDate",
      "filter": "(graduationDate le '${new Date(value).toISOString()}')"
    },
    {
      "name": "hasUser",
      "filter": "${value >=1 ? '(user ne null)': '(user eq null)'}",
      "type": "text"
    }
  ],
  "defaults":{
    "filter": "(department eq '${currentDepartment}' and studentStatus/alternateName eq 'graduated')"
  },
  "paths" : [
    {
      "name": "Students.All",
      "show": true,
      "alternateName": "list",
      "filter": {
      }
    },
    {
      "name": "Students.Active",
      "alternateName": "active",
      "show": true,
      "filter": {
        "status": "active"
      }
    },
    {
      "name": "Students.FirstYear",
      "alternateName": "first-year",
      "filter": {
        "firstYearStudents": true
      }
    },
    {
      "name": "Students.Candidates",
      "alternateName": "candidates",
      "filter": {
        "status": "candidate"
      }
    },
    {
      "name": "Students.Declared",
      "alternateName": "declared",
      "filter": {
        "status": "declared"
      }
    },
    {
      "name": "Students.Graduated",
      "alternateName": "graduated",
      "filter": {
        "status": "graduated"
      }
    },
    {
      "name": "Students.Suspended",
      "alternateName": "suspended",
      "filter": {
        "status": "suspended"
      }
    },
    {
      "name": "Students.Removed",
      "alternateName": "removed",
      "filter": {
        "status": "erased"
      }
    }
  ]
}
