{
  "components": [
    {
      "label": "Columns",
      "columns": [
        {
          "components": [
            {
              "label": "Students.fullName",
              "spellcheck": true,
              "tableView": true,
              "validate": {
                "unique": false,
                "multiple": false
              },
              "key": "studentName",
              "type": "textfield",
              "input": true,
              "hideOnChildrenHidden": false
            }
          ],
          "width": 6,
          "offset": 0,
          "push": 0,
          "pull": 0
        },
        {
          "components": [
            {
              "label": "Students.studentIdentifier",
              "labelPosition": "top",
              "widget": {
                "type": "input"
              },
              "validate": {
                "required": false,
                "min": 0
              },
              "key": "studentIdentifier",
              "type": "number",
              "input": true
            }
          ],
          "width": 6
        },
        {
          "components": [
            {
              "label": "Exams.GradeStatusTitle",
              "widget": "choicesjs",
              "dataSrc": "url",
              "data": {
                "url": "GradeStatuses?$top=-1",
                "headers": []
              },
              "selectThreshold": 0.3,
              "template": "<span class='d-block pr-5 text-truncate'>{{ item.alternateName }}</span>",
              "key": "gradeStatus",
              "valueProperty": "alternateName",
              "selectValues": "value",
              "type": "select",
              "input": true,
              "hideOnChildrenHidden": false,
              "disableLimit": false,
              "lazyLoad": true
            }
          ],
          "width": 6,
          "offset": 0,
          "push": 0,
          "pull": 0
        }
      ],
      "tableView": false,
      "key": "department",
      "type": "columns",
      "input": false,
      "path": "columns"
    }
  ]
}
