{
  "model": "StudentScholarships",
  "title": "Scholarship students",
  "columns": [
        {
      "name":"student/id",
      "property":"id",
      "formatter": "ActionLinkFormatter",
      "actions" : [
        {
          "title": "Scholarships.Preview",
          "href": "#/students/${id}/"
        }
      ]
    },
    {
      "name": "student/studentIdentifier",
      "property" : "student_studentIdentifier",
      "title": "Students.studentIdentifier"
    },
    {
      "name": "student/person/givenName",
      "property": "student_givenName",
      "hidden": true
    },
    {
        "name": "student/person/familyName",
        "property": "student_familyName",
        "title": "Students.fullName",
        "formatter": "TemplateFormatter",
        "formatString": "${student_familyName} ${student_givenName}"
    },
    {
      "name": "student/inscriptionYear/alternateName",
      "property" : "student_inscriptionYear",
      "title": "Students.inscriptionYear"
    },
    {
      "name": "student/inscriptionPeriod/alternateName",
      "property" : "student_inscriptionPeriod",
      "title": "Students.inscriptionPeriod",
      "formatter": "TranslationFormatter",
      "formatString": "Periods.${value}"
    },
    {
      "name": "student/semester",
      "property" : "student_semester",
      "title": "Students.semester"
    },
    {
      "name": "student/studentStatus/alternateName",
      "property" : "student_status",
      "title": "Students.Status",
      "formatter": "TranslationFormatter",
      "formatString": "StudentStatuses.${value}"
    },
    {
      "name": "grade",
      "property" : "grade",
      "title": "Scholarships.Grade"
    }
  ]
}
