{
  "title": "Institutes",
  "model": "Institutes",
  "searchExpression":"indexof(name, '${text}') ge 0 or indexof(alternateName, '${text}') ge 0 or indexof(url, '${text}') ge 0",
  "columns": [
    {
      "name": "name",
      "title": "Settings.Attributes.name"
    },
    {
      "name":"url",
      "title": "Settings.Attributes.url"
    },
    {
      "name":"instituteType/alternateName",
      "property": "instituteTypeName",
      "title":"Settings.Attributes.instituteType",
      "formatter": "TranslationFormatter",
      "formatString": "InstituteTypes.${value}"
    },
    {
      "name": "id",
      "formatter": "ButtonFormatter",
      "formatString":"(modal:edit)",
      "className": "text-center",
      "formatOptions": {
        "buttonContent": "<i class=\"far fa-edit text-indigo\"></i>",
        "buttonClass": "btn btn-default"
      }
    }
  ],
  "criteria": [
    {
      "name": "name",
      "filter": "(indexof(name, '${value}') ge 0)",
      "type": "text"
    },
    {
      "name": "instituteTypeName",
      "filter": "(indexof(instituteType/alternateName, '${value}') ge 0)",
      "type": "text"
    }
  ],
  "defaults": {
    "orderBy": "local desc"
  },
  "paths" : [
  ]
}
