{
  "model": "Enumerations",
  "title": "Academic Years",
  "settings": {
    "i18n": {
      "el": {
        "Academic Years":"Ακαδημαϊκά Έτη",
        "Year": "Έτος",
        "Set the academic year (eq enter 2020 for the 2020-2021 academic year)":"Ορίστε το ακαδημαϊκό έτος (π.χ. εισάγετε 2020 για το ακαδημαϊκό έτος 2020-2021)",
        "Set the name of academic year":"Ορίστε την ονομασία του ακαδημαϊκού έτους",
        "Set an alternate name for this academic year. This name will be used to identify the academic year":"Ορίστε μία εναλλακτική ονομασία για το ακαδημαϊκό έτος. Αυτό το όνομα θα χρησιμοποιηθεί για την ταυτοποίηση του ακαδημαϊκού έτους",
        "This field must contain the academic year description without spaces. A value is required.": "Αυτό το πεδίο πρέπει να περιέχει την περιγραφή του ακαδημαϊκού έτους χωρίς κενά. Το πεδίο είναι υποχρεωτικό.",
        "Write the description for this academic year (eg ACADEMIC YEAR 2020-2021)": "Γράψτε την περιγραφή για αυτό το ακαδημαϊκό έτος (π.χ. ΑΚΑΔΗΜΑΪΚΟ ΕΤΟΣ 2020-2021)"
      }
    }
  },
  "components": [
    {
      "type": "fieldset",
      "components": [
        {
          "label": "HTML",
          "tag": "h5",
          "className": "font-weight-normal",
          "content": "{{form.subtitle}}",
          "refreshOnChange": false,
          "tableView": false,
          "key": "subtitle",
          "type": "htmlelement",
          "input": false
        },
        {
          "columns": [
            {
              "components": [
                {
                  "label": "Year",
                  "labelPosition": "top",
                  "widget": {
                    "type": "input"
                  },
                  "validate": {
                    "required": true,
                    "min": 1950,
                    "max": 2050,
                    "integer": true
                  },
                  "key": "id",
                  "type": "number",
                  "input": true,
                  "disabled": true,
                  "description": "Set the academic year (eq enter 2020 for the 2020-2021 academic year)"
                }
              ],
              "width": 12
            },
            {
              "components": [
                {
                  "label": "Name",
                  "labelPosition": "top",
                  "widget": {
                    "type": "input"
                  },
                  "validate": {
                    "required": true
                  },
                  "key": "name",
                  "type": "textfield",
                  "input": true,
                  "disabled": true,
                  "calculateValue": "value = data.id ? data.id + \"-\" + (data.id + 1) : \"\"",
                  "description": "Set the name of academic year"
                }
              ],
              "width": 6
            },
            {
              "components": [
                {
                  "label": "AlternateName",
                  "labelPosition": "top",
                  "widget": {
                    "type": "input"
                  },
                  "validate": {
                    "required": true,
                    "pattern": "^[a-zA-Z0-9_+-]+$",
                    "customMessage": "This field must contain the academic year description without spaces. A value is required."
                  },
                  "key": "alternateName",
                  "type": "textfield",
                  "input": true,
                  "disabled": true,
                  "calculateValue": "value = data.name ? data.name : \"\"",
                  "description": "Set an alternate name for this academic year. This name will be used to identify the academic year"
                }
              ],
              "width": 6
            },
            {
              "components": [
                {
                  "label": "Description",
                  "labelPosition": "top",
                  "widget": {
                    "type": "input"
                  },
                  "validate": {
                    "required": true
                  },
                  "key": "description",
                  "type": "textarea",
                  "description": "Write the description for this academic year (eg ACADEMIC YEAR 2020-2021)",
                  "input": true
                }
              ],
              "width": 12
            }
          ],
          "customClass": "text-dark",
          "hideLabel": true,
          "type": "columns",
          "input": false
        }
      ]
    },
    {
      "type": "button",
      "label": "Submit",
      "key": "submit",
      "disableOnInvalid": true,
      "input": true
    }
  ]
}
