{
  "title": "Specialties",
  "model": "StudyProgramSpecialties",
  "columns": [
    {
      "name": "id",
      "formatter": "ButtonFormatter",
      "property": "id",
      "className": "text-center",
      "formatOptions": {
        "buttonContent": "<i class=\"fas fa-edit text-indigo\"></i>",
        "buttonClass": "btn btn-default",
        "commands": [
          { "outlets":
          {
            "modal":["${id}", "edit"]
          }
          }
        ],
        "navigationExtras": {
          "replaceUrl": false,
          "skipLocationChange": true
        }
      }
    },

    {
      "name":"name",
      "title":"StudyPrograms.Name",
      "className": "w-50"
    },
    {
      "name":"abbreviation",
      "title":"StudyPrograms.Abbreviation",
      "className": "w-50"
    },
    {
      "name":"studyProgram/id",
      "property": "studyProgram",
      "hidden": true
    },
    {
      "name": "id",
      "property": "rulesID",
      "formatter": "ButtonFormatter",
      "formatString":"(modal:rules)",
      "className": "text-center  ",
      "formatOptions": {
        "buttonContent": "<i class=\"fas fa-graduation-cap  text-indigo\"></i>",
        "buttonClass": "btn btn-default",
        "buttonTitle": "Rules.RuleTypes.GraduationRules",
        "commands": [
          { "outlets":
          {
            "modal":["${id}", "rules"]
          }
          }
        ],
        "navigationExtras": {
          "replaceUrl": false,
          "skipLocationChange": true
        }
      }
    },
    {
      "name": "id",
      "property": "specialtyRulesID",
      "formatter": "ButtonFormatter",
      "formatString":"(modal:specialtyRules)",
      "className": "text-center ",
      "formatOptions": {
        "buttonContent": "<i class=\"fas fa-blender text-indigo\"></i>",
        "buttonClass": "btn btn-default",
        "buttonTitle": "Rules.RuleTypes.SpecialtyRules",
        "commands": [
          { "outlets":
          {
            "modal":["${id}", "specialtyRules"]
          }
          }
        ],
        "navigationExtras": {
          "replaceUrl": false,
          "skipLocationChange": true
        }
      }
    }
  ]
}
