{
    "model": "offlineTable",
    "searchExpression": "",
    "columns": [
      {
        "name":"studentIdentifier",
        "property": "studentIdentifier",
        "title":"Students.studentIdentifier"
      },
      {
        "name":"familyName",
        "property": "familyName",
        "title":"Students.fullName",
        "formatter": "TemplateFormatter",
        "formatString": "${familyName} ${givenName}"
      },
      {
        "name":"givenName",
        "property": "givenName",
        "title":"Students.GivenName",
        "hidden": true
      },
      {
        "name": "registrationSemester",
        "property": "registrationSemester",
        "title": "Students.semester"
      },
      {
        "name": "studentStatus",
        "property": "studentStatus",
        "title": "Requests.StudentStatus"
      },
      {
        "name": "formattedGrade",
        "property": "formattedGrade",
        "title": "Exams.Grade"
      },
      {
        "name": "validationResult",
        "property": "validationResult.code",
        "title": "Exams.GradeStatusTitle",
        "formatters": [
          {
            "formatter": "TranslationFormatter",
            "formatString": "Exams.GradeStatusTypes.${value}"
          },
          {
            "formatter": "NgClassFormatter",
            "formatOptions": {
              "ngClass": {
                "text-danger": "'${validationResult.success}'==='false'",
                "text-success": "'${validationResult.success}'==='true'"
              }
            }
          }
        ]
      }
    ],
    "defaults": {
    }
  }
  