{
    "model": "Instructors",
    "settings": {
      "i18n": {
        "el": {
          "Instructor user": "Χρήστης διδάσκοντα",
          "Select the user that will be linked to the instructor": "Επιλέξτε τον χρήστη που θα συνδεθεί με τον/την διδάσκοντα/ουσα."
        }
      }
    },
    "components": [
      {
        "type": "fieldset",
        "components": [
          {
            "columns": [
              {
                "components": [
                  {
                    "label": "Instructor user",
                    "labelPosition": "top",
                    "widget": "choicesjs",
                    "dataSrc": "url",
                    "data": {
                      "url": "Users?$top={{limit}}&$skip={{skip}}&$filter=groups/name eq 'Instructors' and enabled eq 1 and (indexof(name, '{{encodeURIComponent(search||'')}}') ge 0 or indexof(alternateName, '{{encodeURIComponent(search||'')}}') ge 0)&$orderby=id desc",
                      "headers": []
                    },
                    "limit": 25,
                    "lazyLoad": true,
                    "dataType": "object",
                    "idPath": "id",
                    "searchField": "search",
                    "template": "{{ item.name }} - ({{item.alternateName}})",
                    "selectValues": "value",
                    "key": "user",
                    "type": "select",
                    "input": true,
                    "validate": {
                      "required": true
                    },
                    "description": "Select the user that will be linked to the instructor"
                  }
                ],
                "width": 8
              }
            ],
            "customClass": "text-dark",
            "hideLabel": true,
            "type": "columns",
            "input": false
          }
        ]
      }
    ],
    "width": 3
  }
  