{
  "model": "RequestRemoveActions",
  "title": "Student Removal",
  "settings": {
    "i18n": {
      "el": {
        "Student Removal": "Διαγραφή Φοιτητή",
        "Use this field if you want to note something more about the request on behalf of the student":"Χρησιμοποιήστε το πεδίο αυτό για να δηλώσετε κάτι επιπλέον σχετικά με την αίτηση εκ μέρους του φοιτητή.",
        "If you are requesting a student removal due to enrollment to another department, please specify the name of the department":  "Αν αιτείστε την διαγραφή ενός φοιτητή λόγω μεταγραφής, ορίστε το τμήμα στο οποίο πρόκειται να μεταγραφεί",
        "Removal Title": "Τίτλος Αίτησης",
        "Notes": "Σχόλια"
      }
    }
  },
  "components": [
    {
      "type": "fieldset",
      "components": [
        {
          "columns": [
            {
              "components": [
                {
                  "label": "Student Number",
                  "key": "student.studentIdentifier",
                  "labelPosition": "top",
                  "type": "number",
                  "input": true,
                  "disabled": true,
                  "validate": {
                    "required": false
                  }
                }
              ],
              "width": 4,
              "offset": 0,
              "push": 0,
              "pull": 0
            },
            {
              "components": [
                {
                  "label": "Given Name",
                  "key": "student.person.givenName",
                  "labelPosition": "top",
                  "dataSrc": "url",
                  "disabled": true,
                  "widget": {
                    "type": "input"
                  },
                  "validate": {
                    "required": false
                  },
                  "type": "textfield",
                  "input": true
                }
              ],
              "width": 4,
              "offset": 0,
              "push": 0,
              "pull": 0
            },
            {
              "components": [
                {
                  "label": "Family Name",
                  "labelPosition": "top",
                  "widget": "choicesjs",
                  "disabled": true,
                  "dataSrc": "url",
                  "selectValues": "value",
                  "key": "student.person.familyName",
                  "type": "textfield",
                  "input": true,
                  "validate": {
                    "required": false
                  }
                }
              ],
              "width": 4,
              "offset": 0,
              "push": 0,
              "pull": 0
            },
            {
              "components": [
                {
                  "label": "Removal Title",
                  "labelPosition": "top",
                  "widget": {
                    "type": "input"
                  },
                  "validate": {
                    "required": false
                  },
                  "key": "name",
                  "type": "textfield",
                  "input": true,
                  "disabled": false
                }
              ],
              "width": 12
            },
            {
              "components": [
                {
                  "label": "Removal Year",
                  "labelPosition": "top",
                  "key": "removalYear",
                  "type": "select",
                  "searchEnabled": true,
                  "dataSrc": "url",
                  "data": {
                    "url": "AcademicYears?$top={{limit}}&$skip={{skip}}&$orderby=id desc",
                    "headers": []
                  },
                  "limit": 20,
                  "template": "{{ item.alternateName }}",
                  "input": true,
                  "lazyLoad": true,
                  "selectValues": "value",
                  "disabled": true,
                  "widget": "choicesjs",
                  "validate": {
                    "required": false
                  }
                }
              ],
              "width": 3
            },
            {
              "components": [
                {
                  "label": "Removal Period",
                  "labelPosition": "top",
                  "widget": "choicesjs",
                  "dataSrc": "url",
                  "data": {
                    "url": "AcademicPeriods",
                    "headers": []
                  },
                  "template": "{{ item.name }}",
                  "selectValues": "value",
                  "key": "removalPeriod",
                  "type": "select",
                  "input": true,
                  "disabled": true,
                  "searchEnabled": false,
                  "validate": {
                    "required": false
                  }
                }
              ],
              "width": 3
            },
            {
              "components": [
                {
                  "label": "Removal Department",
                  "key": "removalDepartment",
                  "labelPosition": "top",
                  "validate": {
                    "required": false,
                    "maxLength": 70
                  },
                  "input": true,
                  "type": "textfield",
                  "clearOnRefresh": true,
                  "disabled": false,
                  "description": "If you are requesting a student removal due to enrollment to another department, please specify the name of the department"
                }
              ],
              "width": 12,
              "offset": 0,
              "push": 0,
              "pull": 0
            },
            {
              "components": [
                {
                  "label": "Notes",
                  "labelPosition": "top",
                  "widget": {
                    "type": "input"
                  },
                  "validate": {
                    "required": false
                  },
                  "key": "description",
                  "type": "textarea",
                  "input": true,
                  "description": "Use this field if you want to note something more about the request on behalf of the student"
                }
              ],
              "width": 12
            },
            {
              "components": [
                {
                  "label": "Action Status",
                  "labelPosition": "top",
                  "dataSrc": "url",
                  "data": {
                    "url": "ActionStatusTypes",
                    "headers": []
                  },
                  "template": "{{ item.name }}",
                  "key": "actionStatus",
                  "type": "select",
                  "input": true,
                  "selectValues": "value",
                  "widget": "choicesjs",
                  "searchEnabled": false,
                  "validate": {
                    "required": false
                  },
                  "disabled": true,
                  "valueProperty": "id",
                  "lazyLoad": false,
                  "hidden": true
                }
              ],
              "width": 12
            }
          ],
          "customClass": "text-dark",
          "hideLabel": true,
          "type": "columns",
          "input": false
        }
      ]
    },
    {
      "type": "button",
      "label": "Submit",
      "key": "submit",
      "disableOnInvalid": true,
      "input": true
    }
  ],
  "width": 3
}
