{
  "components": [
    {
      "label": "Columns",
      "columns": [
        {
          "components": [
            {
              "label": "Instructors.Name",
              "spellcheck": true,
              "tableView": true,
              "validate": {
                "unique": false,
                "multiple": false
              },
              "key": "instructorName",
              "type": "textfield",
              "input": true,
              "hideOnChildrenHidden": false
            }
          ],
          "width": 6,
          "offset": 0,
          "push": 0,
          "pull": 0
        },
        {
          "components": [
            {
              "label": "Instructors.Department",
              "spellcheck": true,
              "tableView": true,
              "validate": {
                "unique": false,
                "multiple": false
              },
              "key": "departmentName",
              "type": "textfield",
              "input": true,
              "hideOnChildrenHidden": false
            }
          ],
          "width": 6,
          "offset": 0,
          "push": 0,
          "pull": 0
        }
      ],
      "tableView": false,
      "key": "department",
      "type": "columns",
      "input": false,
      "path": "columns"
    },
    {
      "label": "Columns",
      "columns": [
        {
          "components": [
            {
              "label": "Instructors.Category",
              "labelPosition": "top",
              "widget": {
                "type": "input"
              },
              "key": "category",
              "type": "textfield",
              "input": true
            }
          ],
          "width": 4,
          "offset": 0,
          "push": 0,
          "pull": 0
        },
        {
          "components": [
            {
              "label": "Instructors.Status",
              "labelPosition": "top",
              "widget": "choicesjs",
              "searchEnabled": false,
              "template": "<span class='d-block pr-5 text-truncate'>{{ item.name }}</span>",
              "type": "select",
              "input": true,
              "dataSrc": "url",
              "data": {
                "url": "InstructorStatuses/?$select=id,name,alternateName",
                "headers": []
              },
              "key": "status",
              "valueProperty": "id",
              "selectValues": "value"
            }
          ],
          "width": 4,
          "offset": 0,
          "push": 0,
          "pull": 0
        },
        {
          "components": [
            {
              "label": "Instructors.WorkPhone",
              "labelPosition": "top",
              "key": "workphone",
              "type": "textfield",
              "input": true
          }
          ],
          "width": 4,
          "offset": 0,
          "push": 0,
          "pull": 0
        }
      ],
      "tableView": false,
      "key": "columns1",
      "type": "columns",
      "input": false,
      "path": "columns1"
    }
  ]
}
